\relax 
\catcode `:\active 
\catcode `;\active 
\catcode `!\active 
\catcode `?\active 
\select@language{french}
\@writefile{toc}{\select@language{french}}
\@writefile{lof}{\select@language{french}}
\@writefile{lot}{\select@language{french}}
\@writefile{toc}{\contentsline {chapter}{\numberline {1}Solution 1 : Solution na\begingroup \let \relax \relax \endgroup [Pleaseinsert\PrerenderUnicode{ï}intopreamble]ve}{2}}
\@writefile{lof}{\addvspace {10\p@ }}
\@writefile{lot}{\addvspace {10\p@ }}
\@writefile{toc}{\contentsline {subsection}{\numberline {1.0.1}a}{2}}
\@writefile{toc}{\contentsline {subsection}{\numberline {1.0.2}b}{2}}
\@writefile{toc}{\contentsline {subsection}{\numberline {1.0.3}c}{2}}
\@writefile{toc}{\contentsline {chapter}{\numberline {2}Solution 2 : Am\IeC {\'e}lioration de la solution na\IeC {\"\i }ve}{4}}
\@writefile{lof}{\addvspace {10\p@ }}
\@writefile{lot}{\addvspace {10\p@ }}
\@writefile{toc}{\contentsline {subsection}{\numberline {2.0.4}a}{4}}
\@writefile{toc}{\contentsline {subsection}{\numberline {2.0.5}b}{4}}
\@writefile{toc}{\contentsline {subsection}{\numberline {2.0.6}c}{4}}
\@writefile{toc}{\contentsline {chapter}{\numberline {3}Solution 3 : Tableau interm\IeC {\'e}diaire}{5}}
\@writefile{lof}{\addvspace {10\p@ }}
\@writefile{lot}{\addvspace {10\p@ }}
\@writefile{toc}{\contentsline {subsection}{\numberline {3.0.7}a}{5}}
\@writefile{toc}{\contentsline {subsection}{\numberline {3.0.8}b}{5}}
\@writefile{toc}{\contentsline {subsection}{\numberline {3.0.9}c}{5}}
\@writefile{toc}{\contentsline {chapter}{\numberline {4}Solution 4 : Utilisation d'une pile interm\IeC {\'e}diaire}{6}}
\@writefile{lof}{\addvspace {10\p@ }}
\@writefile{lot}{\addvspace {10\p@ }}
\@writefile{toc}{\contentsline {subsection}{\numberline {4.0.10}a}{6}}
\@writefile{toc}{\contentsline {subsection}{\numberline {4.0.11}b}{6}}
\@writefile{toc}{\contentsline {subsection}{\numberline {4.0.12}c}{6}}
\@writefile{toc}{\contentsline {subsection}{\numberline {4.0.13}a}{6}}
\@writefile{toc}{\contentsline {subsection}{\numberline {4.0.14}b}{6}}
\@writefile{toc}{\contentsline {subsection}{\numberline {4.0.15}c}{7}}
