\select@language {french}
\contentsline {section}{\numberline {0.1}Question 1}{3}
\contentsline {chapter}{\numberline {1}Solution 1 : Solution na\IeC {\"\i }ve}{4}
\contentsline {section}{\numberline {1.1}a}{4}
\contentsline {section}{\numberline {1.2}b}{4}
\contentsline {section}{\numberline {1.3}c}{5}
\contentsline {chapter}{\numberline {2}Solution 2 : Am\IeC {\'e}lioration de la solution na\IeC {\"\i }ve}{6}
\contentsline {section}{\numberline {2.1}a}{6}
\contentsline {section}{\numberline {2.2}b}{6}
\contentsline {section}{\numberline {2.3}c}{6}
\contentsline {chapter}{\numberline {3}Solution 3 : Utilisation d'un tableau interm\IeC {\'e}diaire}{7}
\contentsline {section}{\numberline {3.1}a}{7}
\contentsline {section}{\numberline {3.2}b}{7}
\contentsline {section}{\numberline {3.3}c}{7}
\contentsline {chapter}{\numberline {4}Solution 4 : Utilisation d'une pile interm\IeC {\'e}diaire}{8}
\contentsline {section}{\numberline {4.1}a}{8}
\contentsline {section}{\numberline {4.2}b}{8}
\contentsline {section}{\numberline {4.3}c}{8}
